%YAML 1.1
%TAG !u! tag:unity3d.com,2011:
--- !u!114 &11400000
MonoBehaviour:
  m_ObjectHideFlags: 0
  m_CorrespondingSourceObject: {fileID: 0}
  m_PrefabInstance: {fileID: 0}
  m_PrefabAsset: {fileID: 0}
  m_GameObject: {fileID: 0}
  m_Enabled: 1
  m_EditorHideFlags: 0
  m_Script: {fileID: 11500000, guid: 8a0fd0b448f7942428a04d7269d5db0e, type: 3}
  m_Name: Level0003
  m_EditorClassIdentifier: 
  levelName: Level0001
  levelDuration: 360
  levelGoals: 96000000c80000002c010000
  maxCustomerNumberAtSameTime: 3
  minTimeCustomerSpawnRate: 3
  maxTimeCustomerSpawnRate: 6
  minTimeCustomerOopsiesRate: 7
  maxTimeCustomerOopsiesRate: 20
  boxNumber: 6
  minFoodNumberInBox: 1
  maxFoodNumberInBox: 3
  availableFoodTypes: 04000000
  isEventOccuring: 0
  minTimeEventSpawnRate: 60
  maxTimeEventSpawnRate: 90
  onEventStarted: {fileID: 11400000, guid: 85c37ba7139bdc74ea3d9451ccc4d01f, type: 2}
